User Name,Account Alerts,Email,Calendar,Files,Last Login,Used/Quota
abray@airtoground.com,,X,,,, bytes  /  bytes 
accounting@airtoground.com,,X,,,, bytes  /  bytes 
admin@airtoground.com,MX Record Failure,X,,,01/23/2013 21:44,13.79 kb  / Unlimited 
administrator@airtoground.com,,X,,,, bytes  /  bytes 
ahamilton@airtoground.com,,X,,,, bytes  /  bytes 
autodetailing@airtoground.com,,X,,,, bytes  /  bytes 
aviation@airtoground.com,,X,,,, bytes  /  bytes 
bclark@airtoground.com,,X,,,, bytes  /  bytes 
bprice@airtoground.com,,X,,,, bytes  /  bytes 
cgorbett@airtoground.com,,X,,,, bytes  /  bytes 
chealy@airtoground.com,,X,,,, bytes  /  bytes 
cnilest@airtoground.com,,X,,,, bytes  /  bytes 
cpeevyhouse@airtoground.com,,X,,,, bytes  /  bytes 
cpham@airtoground.com,,X,,,, bytes  /  bytes 
dcheatham@airtoground.com,,X,,,, bytes  /  bytes 
dhensley@airtoground.com,,X,,,, bytes  /  bytes 
dhubbard@airtoground.com,,X,,,, bytes  /  bytes 
dmadden@airtoground.com,,X,,,, bytes  /  bytes 
donotreply@airtoground.com,,X,,,, bytes  /  bytes 
dpetry@airtoground.com,,X,,,, bytes  /  bytes 
eburke@airtoground.com,,X,,,, bytes  /  bytes 
eorange@airtoground.com,,X,,,, bytes  /  bytes 
eyoung@airtoground.com,,X,,,, bytes  /  bytes 
fedeast@airtoground.com,,X,,,, bytes  /  bytes 
fedwest@airtoground.com,,X,,,, bytes  /  bytes 
humanresources@airtoground.com,,X,,,, bytes  /  bytes 
indapplication@airtoground.com,,X,,,, bytes  /  bytes 
louapplication@airtoground.com,,X,,,, bytes  /  bytes 
memapplication@airtoground.com,,X,,,, bytes  /  bytes 
mkraushaar@airtoground.com,,X,,,, bytes  /  bytes 
mlynch@airtoground.com,,X,,,, bytes  /  bytes 
mnelms@airtoground.com,,X,,,, bytes  /  bytes 
mobilewashing@airtoground.com,,X,,,, bytes  /  bytes 
mspencer@airtoground.com,,X,,,, bytes  /  bytes 
notfound@airtoground.com,,X,,,, bytes  /  bytes 
pcollins@airtoground.com,,X,,,, bytes  /  bytes 
receptionish@airtoground.com,,X,,,, bytes  /  bytes 
rpence@airtoground.com,,X,,,, bytes  /  bytes 
rtorres@airtoground.com,,X,,,, bytes  /  bytes 
rwgraham@airtoground.com,,X,,,, bytes  /  bytes 
sales@airtoground.com,,X,,,, bytes  /  bytes 
scheeks@airtoground.com,,X,,,, bytes  /  bytes 
tgarrett@airtoground.com,,X,,,, bytes  /  bytes 
webmaster@airtoground.com,,X,,,, bytes  /  bytes 
